{
  "project_info": {
    "project_number": "501542169466",
    "firebase_url": "https://skgjst-205910.firebaseio.com",
    "project_id": "skgjst-205910",
    "storage_bucket": "skgjst-205910.appspot.com"
  },
  "client": [
    {
      "client_info": {
        "mobilesdk_app_id": "1:501542169466:android:e61dd3bcebb91237",
        "android_client_info": {
          "package_name": "com.skgjst"
        }
      },
      "oauth_client": [
        {
          "client_id": "501542169466-qj99confdecpm3q20g0i179r4cv47rar.apps.googleusercontent.com",
          "client_type": 1,
          "android_info": {
            "package_name": "com.skgjst",
            "certificate_hash": "f5ef453a941d2da9158643f47fe6e52a2fb43e02"
          }
        },
        {
          "client_id": "501542169466-rpe3v9ns1hs64lv0femgf9uoac6ta8v9.apps.googleusercontent.com",
          "client_type": 3
        }
      ],
      "api_key": [
        {
          "current_key": "AIzaSyA9nRk2q5vxDHHCNKrtczUwKDyd92BvJ5k"
        }
      ],
      "services": {
        "analytics_service": {
          "status": 1
        },
        "appinvite_service": {
          "status": 2,
          "other_platform_oauth_client": [
            {
              "client_id": "501542169466-rpe3v9ns1hs64lv0femgf9uoac6ta8v9.apps.googleusercontent.com",
              "client_type": 3
            }
          ]
        },
        "ads_service": {
          "status": 2
        }
      }
    }
  ],
  "configuration_version": "1"
}